…
### Pitching

Lowest projected RA9 since 1950.

``` {r}
> marcels$Pitching %>% 
   mutate(RA9=27*R/proj_pt) %>% 
   arrange(RA9) %>% 
   filter(yearID>=1950) %>% 
   select(playerID, yearID, RA9)
# A tibble: 28,840 × 3
    playerID yearID      RA9
      <fctr>  <int>    <dbl>
1  gibsobo01   1968 2.394492
2  koufasa01   1964 2.415229
3  goodedw01   1985 2.447113
4  koufasa01   1966 2.451025
5  gibsobo01   1969 2.457587
6  kershcl01   2014 2.461541
7  koufasa01   1965 2.488301
8  maddugr01   1995 2.509565
9  kimbrcr01   2013 2.521602
10 kershcl01   2015 2.526198
# ... with 28,830 more rows
```

### Teams

Highest projected winning percentage since 1913,
``` {r}
> marcels$Teams %>% filter(yearID>=1913) %>% arrange(-wpct) %>% select(yearID, teamID, wpct)
# A tibble: 2,221 × 3
   yearID teamID      wpct
    <int> <fctr>     <dbl>
1    1944    SLN 0.6202040
2    1928    NYA 0.6176024
3    1942    NYA 0.6116650
4    1998    ATL 0.6096477
5    1932    NYA 0.6086274
6    1939    NYA 0.6081185
7    1913    NY1 0.6018390
8    1970    BAL 0.6011749
9    1938    NYA 0.6010655
10   1943    SLN 0.5987925
# ... with 2,211 more rows
```
…
